{
	"id": "aaf44790-340c-4928-83fc-05c8899b8afb",
	"name": "MicroShop CS on NGINX",
	"values": [
		{
			"key": "host",
			"value": "http://localhost:8081/api/customer/v1",
			"enabled": true
		}
	],
	"_postman_variable_scope": "environment",
	"_postman_exported_at": "2021-12-02T13:05:39.639Z",
	"_postman_exported_using": "Postman/9.0.7"
}